# Blender MTL File: 'untitled.blend'
# Material Count: 3

newmtl Material
Ns 96.078443
Ka 1.000000 1.000000 1.000000
Kd 0.026481 0.022756 0.013489
Ks 0.500000 0.500000 0.500000
Ke 0.000000 0.000000 0.000000
Ni 1.000000
d 1.000000
illum 2
map_Ka 1.png
map_Kd 2.png
map_Ks 1.png

newmtl Material.003
Ns 96.078443
Ka 1.000000 1.000000 1.000000
Kd 0.176201 0.176201 0.176201
Ks 0.500000 0.500000 0.500000
Ke 0.000000 0.000000 0.000000
Ni 1.000000
d 1.000000
illum 2
map_Ka 1.png
map_Kd 2.png
map_Ks 1.png

newmtl Material.005
Ns 96.078443
Ka 1.000000 1.000000 1.000000
Kd 0.465162 0.465162 0.465162
Ks 0.500000 0.500000 0.500000
Ke 0.000000 0.000000 0.000000
Ni 1.000000
d 1.000000
illum 2
map_Ka 1.png
map_Kd 2.png
map_Ks 1.png
