# Blender MTL File: 'untitled.blend'
# Material Count: 2

newmtl Body
Ns 225.000000
Ka 1.000000 1.000000 1.000000
Kd 0.800000 0.800000 0.800000
Ks 0.500000 0.500000 0.500000
Ke 0.000000 0.000000 0.000000
Ni 1.450000
d 1.000000
illum 2
map_Bump Body_Normal.png
map_Ka Body_Metallic.png
map_Kd Body_Base_Color.png
map_Ns Body_Roughness.png
map_Ks Body_Metallic.png

newmtl Interior
Ns 225.000000
Ka 1.000000 1.000000 1.000000
Kd 0.800000 0.800000 0.800000
Ks 0.500000 0.500000 0.500000
Ke 0.000000 0.000000 0.000000
Ni 1.450000
d 1.000000
illum 2
map_Bump Interior_Normal.png
map_Ka Body_Metallic.png
map_Kd Interior_Base_Color.png
map_Ns Interior_Roughness.png
map_Ks Interior_Metallic.png
