# Blender MTL File: 'untitled.blend'
# Material Count: 1

newmtl Glass
Ns 225.000000
Ka 1.000000 1.000000 1.000000
Kd 0.800000 0.800000 0.800000
Ks 0.500000 0.500000 0.500000
Ke 0.000000 0.000000 0.000000
Ni 1.450000
d 0.100000
illum 9
map_Bump Glass_Normal.png
map_Kd Glass_Base_Color.png
map_Ns Glass_Roughness.png
map_Ks Glass_Metallic.png
map_Ka Glass_Metallic.png
